<svg width="24" height="25" viewBox="0 0 24 25" fill="none" xmlns="http://www.w3.org/2000/svg">
<path d="M6 8H6.5V7.5V4.5C6.5 4.36739 6.55268 4.24021 6.64645 4.14645C6.74021 4.05268 6.86739 4 7 4H21C21.1326 4 21.2598 4.05268 21.3536 4.14645C21.4473 4.24021 21.5 4.36739 21.5 4.5V17.5C21.5 18.4283 21.1313 19.3185 20.4749 19.9749C19.8185 20.6313 18.9283 21 18 21H5C4.33696 21 3.70107 20.7366 3.23223 20.2678C2.76339 19.7989 2.5 19.163 2.5 18.5V8.5C2.5 8.36739 2.55268 8.24021 2.64645 8.14645C2.74021 8.05268 2.86739 8 3 8H6ZM4 9H3.5V9.5V18.5C3.5 18.8978 3.65804 19.2794 3.93934 19.5607C4.22065 19.842 4.60218 20 5 20C5.39782 20 5.77935 19.842 6.06066 19.5607C6.34196 19.2794 6.5 18.8978 6.5 18.5V9.5V9H6H4ZM7.35002 19.3294L7.10654 20H7.82H18C18.663 20 19.2989 19.7366 19.7678 19.2678C20.2366 18.7989 20.5 18.163 20.5 17.5V5.5V5H20H8H7.5V5.5V18.4979C7.49754 18.7816 7.44682 19.0627 7.35002 19.3294ZM16 12H17C17.1326 12 17.2598 12.0527 17.3536 12.1464C17.4473 12.2402 17.5 12.3674 17.5 12.5C17.5 12.6326 17.4473 12.7598 17.3536 12.8536C17.2598 12.9473 17.1326 13 17 13H16C15.8674 13 15.7402 12.9473 15.6464 12.8536C15.5527 12.7598 15.5 12.6326 15.5 12.5C15.5 12.3674 15.5527 12.2402 15.6464 12.1464C15.7402 12.0527 15.8674 12 16 12ZM16 16H17C17.1326 16 17.2598 16.0527 17.3536 16.1464C17.4473 16.2402 17.5 16.3674 17.5 16.5C17.5 16.6326 17.4473 16.7598 17.3536 16.8536C17.2598 16.9473 17.1326 17 17 17H16C15.8674 17 15.7402 16.9473 15.6464 16.8536C15.5527 16.7598 15.5 16.6326 15.5 16.5C15.5 16.3674 15.5527 16.2402 15.6464 16.1464C15.7402 16.0527 15.8674 16 16 16ZM17 9H11C10.8674 9 10.7402 8.94732 10.6464 8.85355C10.5527 8.75978 10.5 8.63261 10.5 8.5C10.5 8.36739 10.5527 8.24022 10.6464 8.14645C10.7402 8.05268 10.8674 8 11 8H17C17.1326 8 17.2598 8.05268 17.3536 8.14645C17.4473 8.24021 17.5 8.36739 17.5 8.5C17.5 8.63261 17.4473 8.75979 17.3536 8.85355C17.2598 8.94732 17.1326 9 17 9ZM12 13H11C10.8674 13 10.7402 12.9473 10.6464 12.8536C10.5527 12.7598 10.5 12.6326 10.5 12.5C10.5 12.3674 10.5527 12.2402 10.6464 12.1464C10.7402 12.0527 10.8674 12 11 12H12C12.1326 12 12.2598 12.0527 12.3536 12.1464C12.4473 12.2402 12.5 12.3674 12.5 12.5C12.5 12.6326 12.4473 12.7598 12.3536 12.8536C12.2598 12.9473 12.1326 13 12 13ZM12 17H11C10.8674 17 10.7402 16.9473 10.6464 16.8536C10.5527 16.7598 10.5 16.6326 10.5 16.5C10.5 16.3674 10.5527 16.2402 10.6464 16.1464C10.7402 16.0527 10.8674 16 11 16H12C12.1326 16 12.2598 16.0527 12.3536 16.1464C12.4473 16.2402 12.5 16.3674 12.5 16.5C12.5 16.6326 12.4473 16.7598 12.3536 16.8536C12.2598 16.9473 12.1326 17 12 17Z" fill="#66757F" stroke="#66757F"/>
</svg>
